[gd_scene load_steps=2 format=3 uid="uid://x8krourrhmv0"]

[ext_resource type="Script" path="res://curve_mesh/CurveMesh.gd" id="1"]

[node name="CurveMesh" type="MeshInstance3D"]
script = ExtResource( "1" )
radius = 2.0
